…
# Juntar as duas planilhas (p1 e p2) em um único objeto (y) utilizando a função "rbind"
y <- rbind (p1, p2)
y # Vizualizar a planilha parcialmente
View(y) # Vizualizar a planilha inteira

```

## A união das duas planilhas (p1 e p2) resultará na tabela de dados (y) a seguir:

``` r

# A tibble: 23 × 12
      ID Especie Familia   Classifica…¹ N_ind…² Carac…³ Estado Local Latit…⁴ Longi…⁵ Parcela Obser…⁶
   <dbl> <chr>   <chr>     <chr>          <dbl> <chr>   <chr>  <chr>   <dbl>   <dbl> <chr>   <chr>  
 1     1 sp1     Piperacea Herbácea           8 Folha … Com f… Inte…   -21.2   -47.9 Parcel… O dese…
 2     2 sp2     NA        Arvoreta           8 Folha … Veget… Inte…   -21.2   -47.9 Parcel… O dese…
 3     3 sp3     NA        Árvore             4 Árvore… Veget… Inte…   -21.2   -47.9 Parcel… O dese…
 4     4 sp4     NA        Árvore             2 Folha … Veget… Inte…   -21.2   -47.9 Parcel… O dese…
 5     5 sp5     NA        Trepadeira         2 Folha … Veget… Inte…   -21.2   -47.9 Parcel… O dese…
 6     6 sp6     NA        Herbácea           5 Sai do… Veget… Inte…   -21.2   -47.9 Parcel… O dese…
 7     7 sp7     Croton    Árvore             5 Folha … Veget… Inte…   -21.2   -47.9 Parcel… O dese…
 8     8 sp8     NA        Árvore             4 Folha … Veget… Inte…   -21.2   -47.9 Parcel… O dese…
 9     9 sp9     NA        Herbácea          24 Folha … Veget… Inte…   -21.2   -47.9 Parcel… O dese…
10    10 sp10    NA        Rastejante         1 Folha … Veget… Inte…   -21.2   -47.9 Parcel… O dese…
# … with 13 more rows, and abbreviated variable names ¹​Classificacao, ²​N_individuos,
#   ³​Caracteristica, ⁴​Latitude, ⁵​Longitude, ⁶​Observacao
# ℹ Use `print(n = ...)` to see more rows
…
